n,k,i,threads,memory,time,gflops
1024, 256, 100, 1, 6291456, 3.56263, 15.0695
1024, 256, 100, 1, 6291456, 3.68066, 14.5863
1024, 256, 100, 1, 6291456, 3.65145, 14.703
1024, 256, 100, 1, 6291456, 3.73177, 14.3865
1024, 256, 100, 1, 6291456, 3.77283, 14.2299
1024, 256, 100, 1, 6291456, 3.66151, 14.6626
1024, 256, 100, 1, 6291456, 3.59998, 14.9132
1024, 256, 100, 1, 6291456, 3.83559, 13.9971
1024, 256, 100, 1, 6291456, 3.61186, 14.8641
1024, 256, 100, 1, 6291456, 3.81292, 14.0803
1024, 256, 100, 2, 6291456, 2.01745, 26.6113
1024, 256, 100, 2, 6291456, 2.03529, 26.3782
1024, 256, 100, 2, 6291456, 1.99525, 26.9074
1024, 256, 100, 2, 6291456, 2.01194, 26.6842
1024, 256, 100, 2, 6291456, 1.94635, 27.5835
1024, 256, 100, 2, 6291456, 2.02949, 26.4535
1024, 256, 100, 2, 6291456, 2.15827, 24.8751
1024, 256, 100, 2, 6291456, 2.1386, 25.1038
1024, 256, 100, 2, 6291456, 2.07875, 25.8266
1024, 256, 100, 2, 6291456, 2.03142, 26.4284
1024, 256, 100, 3, 6291456, 1.46562, 36.6311
1024, 256, 100, 3, 6291456, 1.46807, 36.5699
1024, 256, 100, 3, 6291456, 1.45503, 36.8976
1024, 256, 100, 3, 6291456, 1.49253, 35.9704
1024, 256, 100, 3, 6291456, 1.49337, 35.9504
1024, 256, 100, 3, 6291456, 1.46237, 36.7124
1024, 256, 100, 3, 6291456, 1.50141, 35.7578
1024, 256, 100, 3, 6291456, 1.44711, 37.0997
1024, 256, 100, 3, 6291456, 1.47137, 36.4878
1024, 256, 100, 3, 6291456, 1.52141, 35.2878
1024, 256, 100, 4, 6291456, 1.1624, 46.1866
1024, 256, 100, 4, 6291456, 0.954817, 56.2276
1024, 256, 100, 4, 6291456, 1.3688, 39.2219
1024, 256, 100, 4, 6291456, 0.947794, 56.6443
1024, 256, 100, 4, 6291456, 0.957781, 56.0536
1024, 256, 100, 4, 6291456, 1.18877, 45.1617
1024, 256, 100, 4, 6291456, 0.955706, 56.1753
1024, 256, 100, 4, 6291456, 1.35382, 39.656
1024, 256, 100, 4, 6291456, 0.949889, 56.5193
1024, 256, 100, 4, 6291456, 0.955531, 56.1856
1024, 256, 100, 5, 6291456, 0.814961, 65.8769
1024, 256, 100, 5, 6291456, 0.814046, 65.9509
1024, 256, 100, 5, 6291456, 0.807893, 66.4532
1024, 256, 100, 5, 6291456, 0.803605, 66.8078
1024, 256, 100, 5, 6291456, 0.813655, 65.9826
1024, 256, 100, 5, 6291456, 0.813714, 65.9778
1024, 256, 100, 5, 6291456, 0.806606, 66.5593
1024, 256, 100, 5, 6291456, 0.799609, 67.1417
1024, 256, 100, 5, 6291456, 0.812095, 66.1094
1024, 256, 100, 5, 6291456, 0.897815, 59.7975
1024, 256, 100, 6, 6291456, 0.697558, 76.9643
1024, 256, 100, 6, 6291456, 0.70056, 76.6345
1024, 256, 100, 6, 6291456, 0.698034, 76.9119
1024, 256, 100, 6, 6291456, 0.699692, 76.7296
1024, 256, 100, 6, 6291456, 0.698743, 76.8338
1024, 256, 100, 6, 6291456, 0.703777, 76.2842
1024, 256, 100, 6, 6291456, 0.698901, 76.8164
1024, 256, 100, 6, 6291456, 0.780582, 68.7783
1024, 256, 100, 6, 6291456, 0.758953, 70.7384
1024, 256, 100, 6, 6291456, 0.701855, 76.4931
1024, 256, 100, 7, 6291456, 0.613725, 87.4774
1024, 256, 100, 7, 6291456, 0.615281, 87.2562
1024, 256, 100, 7, 6291456, 0.625459, 85.8363
1024, 256, 100, 7, 6291456, 0.608005, 88.3004
1024, 256, 100, 7, 6291456, 0.614136, 87.4189
1024, 256, 100, 7, 6291456, 0.621558, 86.375
1024, 256, 100, 7, 6291456, 0.611823, 87.7494
1024, 256, 100, 7, 6291456, 0.611981, 87.7267
1024, 256, 100, 7, 6291456, 0.610587, 87.927
1024, 256, 100, 7, 6291456, 0.615505, 87.2245
1024, 256, 100, 8, 6291456, 0.532775, 100.769
1024, 256, 100, 8, 6291456, 0.535686, 100.221
1024, 256, 100, 8, 6291456, 0.532255, 100.867
1024, 256, 100, 8, 6291456, 0.52434, 102.39
1024, 256, 100, 8, 6291456, 0.532955, 100.735
1024, 256, 100, 8, 6291456, 0.533835, 100.569
1024, 256, 100, 8, 6291456, 0.528872, 101.512
1024, 256, 100, 8, 6291456, 0.53551, 100.254
1024, 256, 100, 8, 6291456, 0.531888, 100.937
1024, 256, 100, 8, 6291456, 0.535503, 100.255
1024, 256, 100, 9, 6291456, 0.504078, 106.506
1024, 256, 100, 9, 6291456, 0.504545, 106.407
1024, 256, 100, 9, 6291456, 0.5043, 106.459
1024, 256, 100, 9, 6291456, 0.504079, 106.505
1024, 256, 100, 9, 6291456, 0.502771, 106.782
1024, 256, 100, 9, 6291456, 0.502685, 106.801
1024, 256, 100, 9, 6291456, 0.500372, 107.294
1024, 256, 100, 9, 6291456, 0.502704, 106.797
1024, 256, 100, 9, 6291456, 0.50368, 106.59
1024, 256, 100, 9, 6291456, 0.506289, 106.04
1024, 256, 100, 10, 6291456, 0.476313, 112.714
1024, 256, 100, 10, 6291456, 0.473966, 113.272
1024, 256, 100, 10, 6291456, 0.477145, 112.517
1024, 256, 100, 10, 6291456, 0.475122, 112.996
1024, 256, 100, 10, 6291456, 0.479664, 111.926
1024, 256, 100, 10, 6291456, 0.477339, 112.472
1024, 256, 100, 10, 6291456, 0.477146, 112.517
1024, 256, 100, 10, 6291456, 0.476541, 112.66
1024, 256, 100, 10, 6291456, 0.481371, 111.53
1024, 256, 100, 10, 6291456, 0.474716, 113.093
1024, 256, 100, 11, 6291456, 0.445554, 120.495
1024, 256, 100, 11, 6291456, 0.447874, 119.871
1024, 256, 100, 11, 6291456, 0.444441, 120.797
1024, 256, 100, 11, 6291456, 0.446657, 120.198
1024, 256, 100, 11, 6291456, 0.448122, 119.805
1024, 256, 100, 11, 6291456, 0.444853, 120.685
1024, 256, 100, 11, 6291456, 0.446112, 120.344
1024, 256, 100, 11, 6291456, 0.445418, 120.532
1024, 256, 100, 11, 6291456, 0.44399, 120.92
1024, 256, 100, 11, 6291456, 0.445167, 120.6
1024, 256, 100, 12, 6291456, 0.416282, 128.968
1024, 256, 100, 12, 6291456, 0.415828, 129.109
1024, 256, 100, 12, 6291456, 0.422639, 127.028
1024, 256, 100, 12, 6291456, 0.41667, 128.848
1024, 256, 100, 12, 6291456, 0.420279, 127.742
1024, 256, 100, 12, 6291456, 0.427889, 125.47
1024, 256, 100, 12, 6291456, 0.417771, 128.508
1024, 256, 100, 12, 6291456, 0.417917, 128.464
1024, 256, 100, 12, 6291456, 0.415696, 129.15
1024, 256, 100, 12, 6291456, 0.421594, 127.343
1024, 256, 100, 13, 6291456, 0.401515, 133.711
1024, 256, 100, 13, 6291456, 0.401244, 133.802
1024, 256, 100, 13, 6291456, 0.39921, 134.483
1024, 256, 100, 13, 6291456, 0.398992, 134.557
1024, 256, 100, 13, 6291456, 0.403059, 133.199
1024, 256, 100, 13, 6291456, 0.402168, 133.494
1024, 256, 100, 13, 6291456, 0.39877, 134.632
1024, 256, 100, 13, 6291456, 0.398801, 134.621
1024, 256, 100, 13, 6291456, 0.399911, 134.248
1024, 256, 100, 13, 6291456, 0.404842, 132.612
1024, 256, 100, 14, 6291456, 0.390811, 137.374
1024, 256, 100, 14, 6291456, 0.380933, 140.936
1024, 256, 100, 14, 6291456, 0.37862, 141.797
1024, 256, 100, 14, 6291456, 0.37765, 142.161
1024, 256, 100, 14, 6291456, 0.376407, 142.63
1024, 256, 100, 14, 6291456, 0.379111, 141.613
1024, 256, 100, 14, 6291456, 0.376616, 142.551
1024, 256, 100, 14, 6291456, 0.382289, 140.436
1024, 256, 100, 14, 6291456, 0.382042, 140.527
1024, 256, 100, 14, 6291456, 0.378326, 141.907
1024, 256, 100, 15, 6291456, 0.357233, 150.286
1024, 256, 100, 15, 6291456, 0.370048, 145.081
1024, 256, 100, 15, 6291456, 0.361226, 148.625
1024, 256, 100, 15, 6291456, 0.359135, 149.49
1024, 256, 100, 15, 6291456, 0.36021, 149.044
1024, 256, 100, 15, 6291456, 0.359943, 149.154
1024, 256, 100, 15, 6291456, 0.360792, 148.803
1024, 256, 100, 15, 6291456, 0.354597, 151.403
1024, 256, 100, 15, 6291456, 0.369317, 145.369
1024, 256, 100, 15, 6291456, 0.362939, 147.923
1024, 256, 100, 16, 6291456, 0.333019, 161.213
1024, 256, 100, 16, 6291456, 0.336107, 159.732
1024, 256, 100, 16, 6291456, 0.33498, 160.27
1024, 256, 100, 16, 6291456, 0.343957, 156.087
1024, 256, 100, 16, 6291456, 0.335796, 159.88
1024, 256, 100, 16, 6291456, 0.33822, 158.734
1024, 256, 100, 16, 6291456, 0.345895, 155.212
1024, 256, 100, 16, 6291456, 0.333993, 160.743
1024, 256, 100, 16, 6291456, 0.33597, 159.797
1024, 256, 100, 16, 6291456, 0.337918, 158.876
1024, 256, 100, 17, 6291456, 0.342473, 156.763
1024, 256, 100, 17, 6291456, 0.337827, 158.919
1024, 256, 100, 17, 6291456, 0.340668, 157.594
1024, 256, 100, 17, 6291456, 0.348697, 153.965
1024, 256, 100, 17, 6291456, 0.343501, 156.294
1024, 256, 100, 17, 6291456, 0.351016, 152.948
1024, 256, 100, 17, 6291456, 0.344266, 155.947
1024, 256, 100, 17, 6291456, 0.350308, 153.257
1024, 256, 100, 17, 6291456, 0.338451, 158.626
1024, 256, 100, 17, 6291456, 0.339007, 158.366
1024, 256, 100, 18, 6291456, 0.328777, 163.293
1024, 256, 100, 18, 6291456, 0.336941, 159.337
1024, 256, 100, 18, 6291456, 0.329463, 162.953
1024, 256, 100, 18, 6291456, 0.330638, 162.374
1024, 256, 100, 18, 6291456, 0.334258, 160.616
1024, 256, 100, 18, 6291456, 0.332786, 161.326
1024, 256, 100, 18, 6291456, 0.331732, 161.839
1024, 256, 100, 18, 6291456, 0.329109, 163.129
1024, 256, 100, 18, 6291456, 0.330639, 162.374
1024, 256, 100, 18, 6291456, 0.329637, 162.867
1024, 256, 100, 19, 6291456, 0.333257, 161.098
1024, 256, 100, 19, 6291456, 0.327623, 163.869
1024, 256, 100, 19, 6291456, 0.324905, 165.239
1024, 256, 100, 19, 6291456, 0.330297, 162.542
1024, 256, 100, 19, 6291456, 0.329473, 162.948
1024, 256, 100, 19, 6291456, 0.326456, 164.454
1024, 256, 100, 19, 6291456, 0.340497, 157.673
1024, 256, 100, 19, 6291456, 0.337525, 159.061
1024, 256, 100, 19, 6291456, 0.327813, 163.774
1024, 256, 100, 19, 6291456, 0.330338, 162.522
1024, 256, 100, 20, 6291456, 0.310934, 172.664
1024, 256, 100, 20, 6291456, 0.309404, 173.518
1024, 256, 100, 20, 6291456, 0.315627, 170.097
1024, 256, 100, 20, 6291456, 0.322689, 166.374
1024, 256, 100, 20, 6291456, 0.312863, 171.599
1024, 256, 100, 20, 6291456, 0.319301, 168.139
1024, 256, 100, 20, 6291456, 0.31225, 171.936
1024, 256, 100, 20, 6291456, 0.307392, 174.654
1024, 256, 100, 20, 6291456, 0.319856, 167.848
1024, 256, 100, 20, 6291456, 0.311678, 172.252
1024, 256, 100, 21, 6291456, 0.300097, 178.899
1024, 256, 100, 21, 6291456, 0.305336, 175.83
1024, 256, 100, 21, 6291456, 0.313272, 171.375
1024, 256, 100, 21, 6291456, 0.300224, 178.823
1024, 256, 100, 21, 6291456, 0.301394, 178.129
1024, 256, 100, 21, 6291456, 0.305519, 175.724
1024, 256, 100, 21, 6291456, 0.311561, 172.316
1024, 256, 100, 21, 6291456, 0.303754, 176.745
1024, 256, 100, 21, 6291456, 0.298331, 179.958
1024, 256, 100, 21, 6291456, 0.322892, 166.269
1024, 256, 100, 22, 6291456, 0.318356, 168.639
1024, 256, 100, 22, 6291456, 0.312179, 171.975
1024, 256, 100, 22, 6291456, 0.309698, 173.353
1024, 256, 100, 22, 6291456, 0.313731, 171.125
1024, 256, 100, 22, 6291456, 0.312263, 171.929
1024, 256, 100, 22, 6291456, 0.314587, 170.659
1024, 256, 100, 22, 6291456, 0.316357, 169.704
1024, 256, 100, 22, 6291456, 0.323703, 165.853
1024, 256, 100, 22, 6291456, 0.311531, 172.333
1024, 256, 100, 22, 6291456, 0.319362, 168.107
1024, 256, 100, 23, 6291456, 0.306076, 175.404
1024, 256, 100, 23, 6291456, 0.302526, 177.463
1024, 256, 100, 23, 6291456, 0.298789, 179.682
1024, 256, 100, 23, 6291456, 0.302664, 177.382
1024, 256, 100, 23, 6291456, 0.29845, 179.886
1024, 256, 100, 23, 6291456, 0.299824, 179.062
1024, 256, 100, 23, 6291456, 0.313895, 171.035
1024, 256, 100, 23, 6291456, 0.306722, 175.035
1024, 256, 100, 23, 6291456, 0.302262, 177.618
1024, 256, 100, 23, 6291456, 0.301302, 178.184
1024, 256, 100, 24, 6291456, 0.311266, 172.48
1024, 256, 100, 24, 6291456, 0.322907, 166.262
1024, 256, 100, 24, 6291456, 0.301076, 178.317
1024, 256, 100, 24, 6291456, 0.316006, 169.893
1024, 256, 100, 24, 6291456, 0.310569, 172.867
1024, 256, 100, 24, 6291456, 0.310323, 173.004
1024, 256, 100, 24, 6291456, 0.305226, 175.893
1024, 256, 100, 24, 6291456, 0.423904, 126.649
1024, 256, 100, 24, 6291456, 0.404958, 132.574
1024, 256, 100, 24, 6291456, 0.320032, 167.755
1024, 256, 100, 25, 6291456, 0.30639, 175.225
1024, 256, 100, 25, 6291456, 0.297874, 180.234
1024, 256, 100, 25, 6291456, 0.310612, 172.843
1024, 256, 100, 25, 6291456, 0.292084, 183.807
1024, 256, 100, 25, 6291456, 0.29884, 179.652
1024, 256, 100, 25, 6291456, 0.298037, 180.136
1024, 256, 100, 25, 6291456, 0.312084, 172.028
1024, 256, 100, 25, 6291456, 0.292558, 183.509
1024, 256, 100, 25, 6291456, 0.298586, 179.804
1024, 256, 100, 25, 6291456, 0.303358, 176.976
1024, 256, 100, 26, 6291456, 0.29317, 183.126
1024, 256, 100, 26, 6291456, 0.298915, 179.607
1024, 256, 100, 26, 6291456, 0.294253, 182.452
1024, 256, 100, 26, 6291456, 0.293697, 182.798
1024, 256, 100, 26, 6291456, 0.296954, 180.793
1024, 256, 100, 26, 6291456, 0.299574, 179.211
1024, 256, 100, 26, 6291456, 0.32052, 167.5
1024, 256, 100, 26, 6291456, 0.305467, 175.754
1024, 256, 100, 26, 6291456, 0.300552, 178.628
1024, 256, 100, 26, 6291456, 0.310513, 172.898
1024, 256, 100, 27, 6291456, 0.301188, 178.251
1024, 256, 100, 27, 6291456, 0.301388, 178.133
1024, 256, 100, 27, 6291456, 0.314897, 170.491
1024, 256, 100, 27, 6291456, 0.299145, 179.468
1024, 256, 100, 27, 6291456, 0.319941, 167.803
1024, 256, 100, 27, 6291456, 0.325472, 164.951
1024, 256, 100, 27, 6291456, 0.313409, 171.3
1024, 256, 100, 27, 6291456, 0.299528, 179.239
1024, 256, 100, 27, 6291456, 0.327418, 163.971
1024, 256, 100, 27, 6291456, 0.309206, 173.629
1024, 256, 100, 28, 6291456, 0.296876, 180.84
1024, 256, 100, 28, 6291456, 0.297742, 180.314
1024, 256, 100, 28, 6291456, 0.293362, 183.006
1024, 256, 100, 28, 6291456, 0.286901, 187.128
1024, 256, 100, 28, 6291456, 0.299707, 179.132
1024, 256, 100, 28, 6291456, 0.309456, 173.489
1024, 256, 100, 28, 6291456, 0.302499, 177.479
1024, 256, 100, 28, 6291456, 0.324972, 165.205
1024, 256, 100, 28, 6291456, 0.297537, 180.438
1024, 256, 100, 28, 6291456, 0.298278, 179.99
1024, 256, 100, 29, 6291456, 0.304704, 176.194
1024, 256, 100, 29, 6291456, 0.296527, 181.053
1024, 256, 100, 29, 6291456, 0.306198, 175.335
1024, 256, 100, 29, 6291456, 0.290608, 184.741
1024, 256, 100, 29, 6291456, 0.287755, 186.572
1024, 256, 100, 29, 6291456, 0.289328, 185.558
1024, 256, 100, 29, 6291456, 0.293062, 183.194
1024, 256, 100, 29, 6291456, 0.303649, 176.806
1024, 256, 100, 29, 6291456, 0.294809, 182.108
1024, 256, 100, 29, 6291456, 0.300887, 178.429
1024, 256, 100, 30, 6291456, 0.291867, 183.944
1024, 256, 100, 30, 6291456, 0.313513, 171.244
1024, 256, 100, 30, 6291456, 0.288055, 186.378
1024, 256, 100, 30, 6291456, 0.297596, 180.403
1024, 256, 100, 30, 6291456, 0.312853, 171.605
1024, 256, 100, 30, 6291456, 0.33738, 159.129
1024, 256, 100, 30, 6291456, 0.293355, 183.011
1024, 256, 100, 30, 6291456, 0.297544, 180.434
1024, 256, 100, 30, 6291456, 0.308472, 174.042
1024, 256, 100, 30, 6291456, 0.294202, 182.484
1024, 256, 100, 31, 6291456, 0.293189, 183.114
1024, 256, 100, 31, 6291456, 0.28756, 186.699
1024, 256, 100, 31, 6291456, 0.326877, 164.242
1024, 256, 100, 31, 6291456, 0.298667, 179.756
1024, 256, 100, 31, 6291456, 0.302712, 177.354
1024, 256, 100, 31, 6291456, 0.297499, 180.461
1024, 256, 100, 31, 6291456, 0.288143, 186.321
1024, 256, 100, 31, 6291456, 0.298539, 179.833
1024, 256, 100, 31, 6291456, 0.32332, 166.049
1024, 256, 100, 31, 6291456, 0.302648, 177.391
1024, 256, 100, 32, 6291456, 0.272918, 196.715
1024, 256, 100, 32, 6291456, 0.269509, 199.203
1024, 256, 100, 32, 6291456, 0.271304, 197.885
1024, 256, 100, 32, 6291456, 0.300688, 178.548
1024, 256, 100, 32, 6291456, 0.273898, 196.011
1024, 256, 100, 32, 6291456, 0.271992, 197.385
1024, 256, 100, 32, 6291456, 0.272849, 196.765
1024, 256, 100, 32, 6291456, 0.268528, 199.931
1024, 256, 100, 32, 6291456, 0.274273, 195.743
1024, 256, 100, 32, 6291456, 0.274205, 195.792
1024, 256, 100, 33, 6291456, 0.318292, 168.672
1024, 256, 100, 33, 6291456, 0.307518, 174.582
1024, 256, 100, 33, 6291456, 0.381395, 140.765
1024, 256, 100, 33, 6291456, 0.305025, 176.009
1024, 256, 100, 33, 6291456, 0.317533, 169.076
1024, 256, 100, 33, 6291456, 0.300968, 178.381
1024, 256, 100, 33, 6291456, 0.308543, 174.002
1024, 256, 100, 33, 6291456, 0.290045, 185.099
1024, 256, 100, 33, 6291456, 0.293769, 182.753
1024, 256, 100, 33, 6291456, 0.305544, 175.71
1024, 256, 100, 34, 6291456, 0.318427, 168.601
1024, 256, 100, 34, 6291456, 0.301968, 177.791
1024, 256, 100, 34, 6291456, 0.305449, 175.765
1024, 256, 100, 34, 6291456, 0.302701, 177.36
1024, 256, 100, 34, 6291456, 0.310453, 172.931
1024, 256, 100, 34, 6291456, 0.304685, 176.205
1024, 256, 100, 34, 6291456, 0.312587, 171.751
1024, 256, 100, 34, 6291456, 0.298155, 180.064
1024, 256, 100, 34, 6291456, 0.340229, 157.797
1024, 256, 100, 34, 6291456, 0.300055, 178.924
1024, 256, 100, 35, 6291456, 0.335218, 160.156
1024, 256, 100, 35, 6291456, 0.324883, 165.251
1024, 256, 100, 35, 6291456, 0.311417, 172.396
1024, 256, 100, 35, 6291456, 0.308504, 174.024
1024, 256, 100, 35, 6291456, 0.317016, 169.351
1024, 256, 100, 35, 6291456, 0.312405, 171.851
1024, 256, 100, 35, 6291456, 0.31166, 172.262
1024, 256, 100, 35, 6291456, 0.301508, 178.062
1024, 256, 100, 35, 6291456, 0.331395, 162.003
1024, 256, 100, 35, 6291456, 0.295357, 181.77
1024, 256, 100, 36, 6291456, 0.302592, 177.424
1024, 256, 100, 36, 6291456, 0.322591, 166.425
1024, 256, 100, 36, 6291456, 0.293259, 183.071
1024, 256, 100, 36, 6291456, 0.313772, 171.102
1024, 256, 100, 36, 6291456, 0.304873, 176.097
1024, 256, 100, 36, 6291456, 0.299861, 179.04
1024, 256, 100, 36, 6291456, 0.301335, 178.164
1024, 256, 100, 36, 6291456, 0.345242, 155.506
1024, 256, 100, 36, 6291456, 0.295201, 181.866
1024, 256, 100, 36, 6291456, 0.328932, 163.216
1024, 256, 100, 37, 6291456, 0.304417, 176.36
1024, 256, 100, 37, 6291456, 0.293239, 183.083
1024, 256, 100, 37, 6291456, 0.317755, 168.958
1024, 256, 100, 37, 6291456, 0.296268, 181.211
1024, 256, 100, 37, 6291456, 0.292315, 183.662
1024, 256, 100, 37, 6291456, 0.317867, 168.898
1024, 256, 100, 37, 6291456, 0.283883, 189.117
1024, 256, 100, 37, 6291456, 0.312292, 171.913
1024, 256, 100, 37, 6291456, 0.297418, 180.511
1024, 256, 100, 37, 6291456, 0.29791, 180.212
1024, 256, 100, 38, 6291456, 0.362021, 148.298
1024, 256, 100, 38, 6291456, 0.369528, 145.286
1024, 256, 100, 38, 6291456, 0.368706, 145.609
1024, 256, 100, 38, 6291456, 0.368693, 145.615
1024, 256, 100, 38, 6291456, 0.366509, 146.482
1024, 256, 100, 38, 6291456, 0.360109, 149.086
1024, 256, 100, 38, 6291456, 0.365065, 147.062
1024, 256, 100, 38, 6291456, 0.369193, 145.417
1024, 256, 100, 38, 6291456, 0.361015, 148.712
1024, 256, 100, 38, 6291456, 0.31881, 168.398
1024, 256, 100, 39, 6291456, 0.372139, 144.266
1024, 256, 100, 39, 6291456, 0.372036, 144.306
1024, 256, 100, 39, 6291456, 0.378226, 141.944
1024, 256, 100, 39, 6291456, 0.373609, 143.699
1024, 256, 100, 39, 6291456, 0.375637, 142.923
1024, 256, 100, 39, 6291456, 0.394901, 135.951
1024, 256, 100, 39, 6291456, 0.381448, 140.746
1024, 256, 100, 39, 6291456, 0.361875, 148.358
1024, 256, 100, 39, 6291456, 0.384565, 139.605
1024, 256, 100, 39, 6291456, 0.378334, 141.904
1024, 256, 100, 40, 6291456, 0.365999, 146.686
1024, 256, 100, 40, 6291456, 0.36498, 147.096
1024, 256, 100, 40, 6291456, 0.363476, 147.705
1024, 256, 100, 40, 6291456, 0.365069, 147.06
1024, 256, 100, 40, 6291456, 0.367191, 146.21
1024, 256, 100, 40, 6291456, 0.365259, 146.984
1024, 256, 100, 40, 6291456, 0.364285, 147.377
1024, 256, 100, 40, 6291456, 0.374738, 143.266
1024, 256, 100, 40, 6291456, 0.365188, 147.012
1024, 256, 100, 40, 6291456, 0.368697, 145.613
